module gitlab.com/backend/service/worker

go 1.17

require (
	github.com/gin-gonic/gin v1.8.2
	github.com/swaggo/files v1.0.0
	github.com/swaggo/gin-swagger v1.5.3
	gitlab.com/golibs-starter/golib v0.12.4
	gitlab.com/golibs-starter/golib-gin v0.6.1
	gitlab.com/golibs-starter/golib-test v0.5.0
	go.uber.org/fx v1.18.2
)

require (
	github.com/KyleBanks/depth v1.2.1 // indirect
	github.com/PuerkitoBio/purell v1.1.1 // indirect
	github.com/PuerkitoBio/urlesc v0.0.0-20170810143723-de5bf2ad4578 // indirect
	github.com/davecgh/go-spew v1.1.1 // indirect
	github.com/emirpasic/gods v1.18.1 // indirect
	github.com/fsnotify/fsnotify v1.6.0 // indirect
	github.com/gin-contrib/sse v0.1.0 // indirect
	github.com/go-openapi/jsonpointer v0.19.5 // indirect
	github.com/go-openapi/jsonreference v0.19.6 // indirect
	github.com/go-openapi/spec v0.20.4 // indirect
	github.com/go-openapi/swag v0.19.15 // indirect
	github.com/go-playground/locales v0.14.0 // indirect
	github.com/go-playground/universal-translator v0.18.0 // indirect
	github.com/go-playground/validator/v10 v10.11.1 // indirect
	github.com/goccy/go-json v0.9.11 // indirect
	github.com/google/uuid v1.3.0 // indirect
	github.com/hashicorp/hcl v1.0.0 // indirect
	github.com/josharian/intern v1.0.0 // indirect
	github.com/json-iterator/go v1.1.12 // indirect
	github.com/leodido/go-urn v1.2.1 // indirect
	github.com/magiconair/properties v1.8.6 // indirect
	github.com/mailru/easyjson v0.7.6 // indirect
	github.com/mattn/go-isatty v0.0.16 // indirect
	github.com/mitchellh/mapstructure v1.5.0 // indirect
	github.com/modern-go/concurrent v0.0.0-20180306012644-bacd9c7ef1dd // indirect
	github.com/modern-go/reflect2 v1.0.2 // indirect
	github.com/pelletier/go-toml v1.9.5 // indirect
	github.com/pelletier/go-toml/v2 v2.0.6 // indirect
	github.com/pkg/errors v0.9.1 // indirect
	github.com/pmezard/go-difflib v1.0.0 // indirect
	github.com/spf13/afero v1.9.3 // indirect
	github.com/spf13/cast v1.5.0 // indirect
	github.com/spf13/jwalterweatherman v1.1.0 // indirect
	github.com/spf13/pflag v1.0.5 // indirect
	github.com/spf13/viper v1.14.0 // indirect
	github.com/stretchr/testify v1.8.1 // indirect
	github.com/subosito/gotenv v1.4.1 // indirect
	github.com/swaggo/swag v1.8.1 // indirect
	github.com/tidwall/gjson v1.14.4 // indirect
	github.com/tidwall/match v1.1.1 // indirect
	github.com/tidwall/pretty v1.2.1 // indirect
	github.com/ugorji/go/codec v1.2.7 // indirect
	github.com/zenthangplus/defaults v1.6.2-beta // indirect
	go.uber.org/atomic v1.10.0 // indirect
	go.uber.org/dig v1.15.0 // indirect
	go.uber.org/multierr v1.8.0 // indirect
	go.uber.org/zap v1.23.0 // indirect
	golang.org/x/crypto v0.3.0 // indirect
	golang.org/x/net v0.4.0 // indirect
	golang.org/x/sys v0.3.0 // indirect
	golang.org/x/text v0.5.0 // indirect
	golang.org/x/tools v0.1.12 // indirect
	google.golang.org/protobuf v1.28.1 // indirect
	gopkg.in/ini.v1 v1.67.0 // indirect
	gopkg.in/yaml.v2 v2.4.0 // indirect
	gopkg.in/yaml.v3 v3.0.1 // indirect
)
